…
# Created a table for the median price of flats with 3 or fewer bedrooms
median_price_beds <- rent %>% 
  filter(beds <= 3 & city == "san francisco") %>% 
  group_by(year, beds) %>% 
  summarise(median_price = median(price))
median_price_beds

## # A tibble: 75 × 3
## # Groups:   year [19]
##     year  beds median_price
##    <dbl> <dbl>        <dbl>
##  1  2000     0        1100 
##  2  2000     1        2175 
##  3  2000     2        2098.
##  4  2001     0        1250 
##  5  2001     1        1725 
##  6  2001     2        2250 
##  7  2001     3        2995 
##  8  2002     0        1125 
##  9  2002     1        1532.
## 10  2002     2        1972.
## # … with 65 more rows
## # ℹ Use `print(n = ...)` to see more rows
…
